\relax 
\catcode `:\active 
\catcode `;\active 
\catcode `!\active 
\catcode `?\active 
\select@language{french}
\@writefile{toc}{\select@language{french}}
\@writefile{lof}{\select@language{french}}
\@writefile{lot}{\select@language{french}}
\@writefile{toc}{\contentsline {chapter}{\numberline {1}Introduction}{3}}
\@writefile{lof}{\addvspace {10\p@ }}
\@writefile{lot}{\addvspace {10\p@ }}
\@writefile{toc}{\contentsline {paragraph}{}{3}}
\@writefile{toc}{\contentsline {paragraph}{}{3}}
\@writefile{toc}{\contentsline {paragraph}{}{3}}
\@writefile{toc}{\contentsline {chapter}{\numberline {2}Physique de l'instrument}{4}}
\@writefile{lof}{\addvspace {10\p@ }}
\@writefile{lot}{\addvspace {10\p@ }}
\@writefile{toc}{\contentsline {section}{\numberline {2.1}Fonctionnement des instruments \IeC {\`a} anche}{4}}
\@writefile{toc}{\contentsline {subsection}{\numberline {2.1.1}Anatomie de la trompette et de la clarinette}{4}}
\@writefile{lof}{\contentsline {figure}{\numberline {2.1}{\ignorespaces  D\IeC {\'e}finition des parties principales de la trompette: l'embouchure en gris, la branche d'embouchure en noir, le cylindre coud\IeC {\'e}, les pistons et le pavillon en jaune.}}{4}}
\newlabel{trump}{{2.1}{4}}
\@writefile{toc}{\contentsline {paragraph}{}{4}}
\@writefile{lof}{\contentsline {figure}{\numberline {2.2}{\ignorespaces Au dessus, d\IeC {\'e}finition des parties principales de la clarinette: le bec en bleu, le barillet en rouge, le corps et les cl\IeC {\'e}s en noir, le pavillon en vert. En dessous, vue en coupe du bec.}}{5}}
\newlabel{clar}{{2.2}{5}}
\@writefile{toc}{\contentsline {paragraph}{}{5}}
\citation{Joel}
\@writefile{toc}{\contentsline {paragraph}{}{6}}
\@writefile{toc}{\contentsline {subsection}{\numberline {2.1.2}Fonctionnement g\IeC {\'e}n\IeC {\'e}ral et imp\IeC {\'e}dance d'entr\IeC {\'e}e}{6}}
\@writefile{toc}{\contentsline {paragraph}{}{6}}
\@writefile{toc}{\contentsline {paragraph}{}{6}}
\@writefile{toc}{\contentsline {paragraph}{}{6}}
\@writefile{toc}{\contentsline {paragraph}{}{6}}
\citation{mcintyre1983oscillations}
\citation{campbellGeneral}
\@writefile{toc}{\contentsline {paragraph}{}{7}}
\@writefile{toc}{\contentsline {paragraph}{}{7}}
\@writefile{toc}{\contentsline {paragraph}{}{7}}
\@writefile{toc}{\contentsline {paragraph}{}{7}}
\@writefile{toc}{\contentsline {paragraph}{}{7}}
\@writefile{lof}{\contentsline {figure}{\numberline {2.3}{\ignorespaces  Imp\IeC {\'e}dance d'entr\IeC {\'e}e typique d'une trompette en si b\IeC {\'e}mol (amplitude), montrant les r\IeC {\'e}sonances 2, 3, 4 et 5 de l'instrument.}}{8}}
\newlabel{imped}{{2.3}{8}}
\@writefile{toc}{\contentsline {section}{\numberline {2.2}Mod\IeC {\`e}le physique et param\IeC {\`e}tres musicien}{8}}
\@writefile{toc}{\contentsline {subsection}{\numberline {2.2.1}Mod\IeC {\`e}le physique}{8}}
\@writefile{toc}{\contentsline {paragraph}{}{8}}
\newlabel{instru}{{2.1}{8}}
\newlabel{lips}{{2.2}{8}}
\newlabel{mouth}{{2.3}{8}}
\@writefile{lof}{\contentsline {figure}{\numberline {2.4}{\ignorespaces  Sous l'action d'une source d'\IeC {\'e}nergie le musicien (\IeC {\'e}l\IeC {\'e}ment non-lin\IeC {\'e}aire, caract\IeC {\'e}ris\IeC {\'e} par une fonction NL) excite le r\IeC {\'e}sonateur (\IeC {\'e}l\IeC {\'e}ment lin\IeC {\'e}aire) qui est coupl\IeC {\'e} au musicien par la boucle de r\IeC {\'e}troaction.}}{9}}
\newlabel{process}{{2.4}{9}}
\@writefile{toc}{\contentsline {paragraph}{}{9}}
\@writefile{toc}{\contentsline {subsection}{\numberline {2.2.2}Param\IeC {\`e}tres musiciens}{9}}
\@writefile{toc}{\contentsline {paragraph}{}{9}}
\@writefile{lof}{\contentsline {figure}{\numberline {2.5}{\ignorespaces Repr\IeC {\'e}sentation du mod\IeC {\`e}le physique. La ligne de courant symbolise la relation de Bernoulli entre $P_m$ , $p$ et $\frac  {u}{S}$. L'oscillateur \IeC {\`a} une masse, repr\IeC {\'e}sent\IeC {\'e} par la masse rectangulaire, lie $H$ \IeC {\`a} $p$ et $P_m$. L'instrument caract\IeC {\'e}ris\IeC {\'e} par son imp\IeC {\'e}dance d'entr\IeC {\'e}e $Z$ lie $p$ \IeC {\`a} $u$.}}{10}}
\newlabel{model}{{2.5}{10}}
\@writefile{lot}{\contentsline {table}{\numberline {2.1}{\ignorespaces Param\IeC {\`e}tres de contr\IeC {\^o}le du musicien ("masque"). Le mot anche peut \IeC {\^e}tre remplac\IeC {\'e} par l\IeC {\`e}vres selon l'instrument consid\IeC {\'e}r\IeC {\'e}.)}}{10}}
\newlabel{param}{{2.1}{10}}
\@writefile{toc}{\contentsline {chapter}{\numberline {3}Simulations par mod\IeC {\`e}le physique}{11}}
\@writefile{lof}{\addvspace {10\p@ }}
\@writefile{lot}{\addvspace {10\p@ }}
\@writefile{toc}{\contentsline {section}{\numberline {3.1}Notions g\IeC {\'e}n\IeC {\'e}rales}{11}}
\@writefile{toc}{\contentsline {paragraph}{}{11}}
\@writefile{toc}{\contentsline {paragraph}{}{11}}
\@writefile{toc}{\contentsline {paragraph}{}{11}}
\@writefile{toc}{\contentsline {paragraph}{}{12}}
\@writefile{toc}{\contentsline {paragraph}{}{12}}
\@writefile{toc}{\contentsline {paragraph}{}{12}}
\@writefile{toc}{\contentsline {paragraph}{}{12}}
\@writefile{toc}{\contentsline {section}{\numberline {3.2}\IeC {\'E}tude du mod\IeC {\`e}le et strat\IeC {\'e}gie employ\IeC {\'e}e}{12}}
\@writefile{toc}{\contentsline {subsection}{\numberline {3.2.1}repr\IeC {\'e}sentation temporelle de l'instrument}{12}}
\@writefile{toc}{\contentsline {paragraph}{}{12}}
\@writefile{lof}{\contentsline {figure}{\numberline {3.1}{\ignorespaces R\IeC {\'e}ponse impulsionnelle de la trompette du TP avec continuation haute fr\IeC {\'e}quence.}}{13}}
\newlabel{repimp}{{3.1}{13}}
\citation{guillemain2005real}
\citation{guillemain2005real}
\@writefile{toc}{\contentsline {subsection}{\numberline {3.2.2}dynamique de l'anche/embouchure}{14}}
\@writefile{toc}{\contentsline {paragraph}{}{14}}
\@writefile{toc}{\contentsline {paragraph}{}{14}}
\@writefile{toc}{\contentsline {subsection}{\numberline {3.2.3}r\IeC {\'e}solution des \IeC {\'e}quation implicites}{14}}
\@writefile{toc}{\contentsline {paragraph}{}{14}}
\@writefile{toc}{\contentsline {paragraph}{}{15}}
\@writefile{toc}{\contentsline {chapter}{\numberline {4}Impl\IeC {\'e}mentation num\IeC {\'e}rique: Matlab}{15}}
\@writefile{lof}{\addvspace {10\p@ }}
\@writefile{lot}{\addvspace {10\p@ }}
\@writefile{toc}{\contentsline {section}{\numberline {4.1}Pr\IeC {\'e}sentation}{15}}
\@writefile{toc}{\contentsline {paragraph}{}{15}}
\@writefile{toc}{\contentsline {paragraph}{}{15}}
\@writefile{lof}{\contentsline {figure}{\numberline {4.1}{\ignorespaces Sch\IeC {\'e}ma d\IeC {\'e}crivant le programme. La partie de gauche repr\IeC {\'e}sente la boucle avec les trois formules de r\IeC {\'e}currence et la partie de droite l'extraction des r\IeC {\'e}ponses impulsionnelles.}}{16}}
\newlabel{struct}{{4.1}{16}}
\@writefile{toc}{\contentsline {section}{\numberline {4.2}Algorithme}{17}}
\@writefile{toc}{\contentsline {paragraph}{}{17}}
\@writefile{toc}{\contentsline {paragraph}{}{17}}
\@writefile{toc}{\contentsline {paragraph}{}{17}}
\@writefile{toc}{\contentsline {paragraph}{}{17}}
\@writefile{toc}{\contentsline {paragraph}{}{17}}
\@writefile{lof}{\contentsline {figure}{\numberline {4.2}{\ignorespaces De haut en bas, p(t), u(t) et y(t)}}{18}}
\newlabel{SonClarinette}{{4.2}{18}}
\@writefile{toc}{\contentsline {paragraph}{}{18}}
\@writefile{toc}{\contentsline {chapter}{\numberline {5}Observation du ph\IeC {\'e}nom\IeC {\`e}ne physique}{19}}
\@writefile{lof}{\addvspace {10\p@ }}
\@writefile{lot}{\addvspace {10\p@ }}
\@writefile{toc}{\contentsline {section}{\numberline {5.1}spectre des sons}{19}}
\@writefile{toc}{\contentsline {paragraph}{}{19}}
\@writefile{toc}{\contentsline {section}{\numberline {5.2}influence de la fr\IeC {\'e}quence d'\IeC {\'e}chantillonnage}{19}}
\citation{fletcher1979excitation}
\@writefile{toc}{\contentsline {section}{\numberline {5.3}pression de seuil}{20}}
\@writefile{toc}{\contentsline {paragraph}{}{20}}
\@writefile{toc}{\contentsline {paragraph}{}{20}}
\@writefile{toc}{\contentsline {section}{\numberline {5.4}la dynamique de l'anche}{20}}
\@writefile{toc}{\contentsline {subsection}{\numberline {5.4.1}influence de $Q_r$}{20}}
\@writefile{toc}{\contentsline {paragraph}{}{20}}
\@writefile{toc}{\contentsline {paragraph}{}{20}}
\@writefile{toc}{\contentsline {subsection}{\numberline {5.4.2}influence $mu_r$}{20}}
\@writefile{toc}{\contentsline {paragraph}{}{20}}
\@writefile{toc}{\contentsline {paragraph}{}{20}}
\@writefile{toc}{\contentsline {subsection}{\numberline {5.4.3}influence $f_r$}{20}}
\@writefile{toc}{\contentsline {paragraph}{}{20}}
\@writefile{toc}{\contentsline {paragraph}{}{20}}
\@writefile{toc}{\contentsline {paragraph}{}{20}}
\@writefile{toc}{\contentsline {paragraph}{}{20}}
\bibstyle{plain}
\bibdata{biblio_ModPhy}
\bibcite{campbellGeneral}{1}
\bibcite{fletcher1979excitation}{2}
\bibcite{Joel}{3}
\bibcite{guillemain2005real}{4}
\bibcite{mcintyre1983oscillations}{5}
\@writefile{toc}{\contentsline {section}{\numberline {5.5}variation des param\IeC {\`e}tres au cours du temps}{21}}
